2;NORMAL;El bar de Manolo;2021-05-02T10:47:15.863086851;2002-02-22T00:00;true
1;ALTA;Carlos;2021-05-02T10:47:15.863335848;2002-02-22T00:00;true
3;BAJA;La casa de papel;2021-05-02T10:47:15.863518795;2002-02-22T00:00;true
0;BAJA;La ventana azul;2021-05-02T10:46:52.942142354;2002-03-04T15:00;true
4;CRITICA;Pepito Grillo;2021-05-02T10:52:46.220904271;2021-05-24T00:00;false
